{
  "title": "StudyPrograms",
  "model": "StudyPrograms",
  "searchExpression":"indexof(name, '${text}') ge 0 or indexof(department/name, '${text}') ge 0 or indexof(studyLevel/name, '${text}') ge 0",
  "columns": [
    {
      "name":"id",
      "property": "id",
      "formatter": "ActionLinkFormatter",
      "actions" : [
        {
          "title": "StudyPrograms.Preview",
          "href": "#/study-programs/${id}/"
        },
        {
          "title": "StudyPrograms.EditStudyProgram",
          "href": "#/study-programs/${id}/edit"
        }
      ]

    },
    {
      "name":"isActive",
      "property": "isActive",
      "title":"StudyPrograms.Active.Singular",
      "formatter": "TrueFalseFormatter"
    },
    {
      "name":"name",
      "property": "name",
      "title":"StudyPrograms.Name"
    },
    {
      "name":"department/name",
      "property": "departmentName",
      "title":"StudyPrograms.DepartmentName"
    },
    {
      "name":"studyLevel/alternateName",
      "property": "studyLevel",
      "title":"StudyPrograms.StudyLevel",
      "formatter": "TranslationFormatter",
      "formatString": "StudyLevels.${value}"
    },
    {
      "name":"semesters",
      "property": "semesters",
      "title":"StudyPrograms.Semesters"
    }
  ],
  "defaults":{
    "filter": "(department eq ${currentDepartment})"
  },
  "criteria": [
    {
      "name": "name",
      "filter": "(indexof(name, '${value}') ge 0)",
      "type": "text"
    },
    {
      "name": "studylevel",
      "filter": "(studyLevel/alternateName eq '${value}')",
      "type": "text"
    },
    {
      "name": "active",
      "filter": "(isActive eq '${value}')",
      "type": "text"
    },
    {
      "name": "abbreviation",
      "filter": "(indexof(abbreviation, '${value}') ge 0)",
      "type": "text"
    }
  ]
}
