{
  "model": "StudyPrograms",
  "settings": {
    "i18n": {
      "el": {
        "Name": "Ονομασία",
        "Set the name of this study program": "Ορίστε την ονομασία του προγράμματος σπουδών",
        "Set a short name": "Ορίστε μια συντομογραφία",
        "Set the degree description": "Ορίστε τον τίτλο σπουδών που απονέμει",
        "Set the study level of this study program": "Ορίστε το επίπεδο σπουδών του προγράμματος σπουδών",
        "Recommended semesters for completion of this study program": "Ο τυπικός αριθμός εξαμήνων για την ολοκλήρωση των σπουδών",
        "Study title type": "Περιγραφή τίτλου σπουδών",
        "Degree description": "Τίτλος σπουδών",
        "Specialization title type": "Περιγραφή κατεύθυνσης",
        "Other name": "Άλλη ονομασία",
        "Set an alternate name for study program (probably for printing)": "Ορίστε μια άλλη ονομασία για το πρόγραμμα σπουδών (πιθανόν για χρήση σε εκτυπώσεις)",
        "Set the department in which this study program is offered in.": "Ορίστε το τμήμα στο οποίο προσφέρεται το πρόγραμμα σπουδών",
        "Select if the study program will be active. This defaults to true and newly enrolled students will be assigned this study program.": "Επιλέξτε εάν το πρόγραμμα σπουδών είναι ενεργό. Ως προεπιλογή, είναι ενεργό και οι νέοι φοιτητές που εγγράφονται θα εγγράφονται σε αυτό το πρόγραμμα σπουδών.",
        "Edit the semester in which the specialty selection is required. The number should be smaller than 12. If 0 is assigned, it means that specialty selection is not required.": "Ορίστε το εξάμηνο στο οποίο πρέπει να γίνει η δήλωση κατεύθυνσης. Ο αριθμός πρέπει να είναι μικρότερος από 12. Εάν οριστεί η τιμή 0, η δήλωση κατεύθυνσης δεν είναι υποχρεωτική",
        "Edit the decimal points of the graduation grade.": "Ορίστε τον αριθμό των δεκαδικών ψηφίων του βαθμού αποφοίτησης.",
        "Select the grade scale that will be applied in this study program. This will affect grade submission and student grades.": "Επιλέξτε την κλίμακα βαθμολογίας που θα εφαρμοστεί σε αυτό το πρόγραμμα σπουδών. Αυτό θα επηρεάσει τις υποβολές βαθμολογίας και τους βαθμούς των φοιτητών",
        "Set an alternate name for study program (propably for printing)": "Ορίστε μια άλλη ονομασία για το πρόγραμμα σπουδών (πιθανόν για χρήση σε εκτυπώσεις)",
        "Access requirements": "Κριτήρια επιλογής",
        "Learning outcomes": "Μαθησιακά αποτελέσματα",
        "Program objectives": "Στόχοι προγράμματος",
        "Study mode": "Μέθοδος υλοποίησης",
        "Benefits": "Αναγκαιότητα προγράμματος",
        "Degree requirements": "Υποχρεώσεις (ολοκλήρωση σπουδών)",
        "Further study": "Πρόσβαση σε σπουδές",
        "Professional status": "Επαγγελματικό καθεστως",
        "Grading scheme": "Σύστημα βαθμολογίας",
        "Other Info": "Συμπληρωματικές πληροφορίες",
        "Further Info": "Άλλες πηγές πληροφοριών",
        "Language Of Instruction":  "Γλώσσα διδασκαλίας",
        "Study program requirements": "Υποχρεώσεις",
        "Field of study": "Αντικείμενο σπουδών",
        "Official duration": "Επίσημη διάρκεια",
        "Extra Information" : "Επιπλέον Πληροφορίες",
        "Maximum Allowed Semesters": "Επιτρεπόμενα εξάμηνα φοίτησης",
        "Minimum Allowed Semesters": "Ελάχιστα εξάμηνα φοίτησης",
        "Set the maximum allowed number of semesters a student can attend in this study program": "Ορίστε το μέγιστο αριθμό εξαμήνων που μπορεί κάποιος να φοιτήσει στο πρόγραμμα σπουδών.",
        "Set the minimum allowed number of semesters a student can attend in this study program": "Ορίστε τον ελάχιστο αριθμό εξαμήνων που πρέπει κάποιος να φοιτήσει στο πρόγραμμα σπουδών.",
        "Update courses' attributes based on this study program": "Ενημέρωση ιδιοτήτων μαθημάτων από το πρόγραμμα σπουδών",
        "Maximum number of remarking": "Μέγιστος αριθμός αναβαθμολογήσεων",
        "Set the maximum number of allowed course remarking": "Ορίστε τον μέγιστο επιτρεπόμενο αριθμό αναβαθμολογήσεων μαθημάτων",
        "Enrollment notes": "Σημειώσεις εγγραφών υποψήφιων φοιτητών",
        "These notes will be visible to the candidates who want to enroll in this study program": "Οι παραπάνω σημειώσεις θα είναι ορατές στους υποψήφιους φοιτητές που ενδιαφέρονται να εγγραφούν στο πρόγραμμα σπουδών, εφόσον αυτό το επιτρέπει.",
        "Duration": "Διάρκεια (σε ώρες διδασκαλίας)",
        "Start Date":"Ημερομηνία έναρξης",
        "End Date":"Ημερομηνία λήξης"
      }
    }
  },
  "components": [
    {
      "label": "Tabs",
      "type": "tabs",
      "key": "tabs1",
      "path": "tabs1",
      "input": false,
      "components": [
        {
          "label": "General Information",
          "components": [
            {
              "type": "fieldset",
              "components": [
                {
                  "columns": [
                    {
                      "components": [
                        {
                          "label": "Name",
                          "labelPosition": "top",
                          "widget": {
                            "type": "input"
                          },
                          "validate": {
                            "required": true
                          },
                          "key": "name",
                          "type": "textfield",
                          "description": "Set the name of this study program",
                          "input": true
                        }
                      ],
                      "width": 6
                    },
                    {
                      "components": [
                        {
                          "label": "Department",
                          "labelPosition": "top",
                          "widget": "choicesjs",
                          "dataSrc": "url",
                          "data": {
                            "url": "LocalDepartments/?$select=id,name",
                            "headers": []
                          },
                          "searchFields": [
                            "id"
                          ],
                          "searchField": "$search",
                          "template": "<span class='d-block pr-5 text-truncate'>{{ item.name }}</span>",
                          "selectThreshold": 0.3,
                          "selectValues": "value",
                          "key": "department",
                          "type": "select",
                          "valueProperty": "id",
                          "lazyLoad": false,
                          "input": true,
                          "disabled": true,
                          "hidden": true,
                          "validate": {
                            "required": false
                          },
                          "description": "Set the department in which this study program is offered in."
                        }
                      ],
                      "width": 6
                    }
                  ],
                  "customClass": "text-dark",
                  "hideLabel": true,
                  "type": "columns",
                  "input": false
                },
                {
                  "columns": [
                    {
                      "components": [
                        {
                          "label": "Degree description",
                          "labelPosition": "top",
                          "key": "info.degreeDescription",
                          "description": "Set the degree description",
                          "type": "textfield",
                          "validate": {
                            "required": true,
                            "maxLength": 150
                          }
                        }
                      ],
                      "width": 4
                    },
                    {
                      "components": [
                        {
                          "label": "Abbreviation",
                          "labelPosition": "top",
                          "validate": {
                            "required": true,
                            "maxLength": 20
                          },
                          "key": "abbreviation",
                          "type": "textfield",
                          "input": true
                        }
                      ],
                      "width": 4
                    },
                    {
                      "components": [
                        {
                          "label": "Duration",
                          "labelPosition": "top",
                          "validate": {
                            "required": false
                          },
                          "key": "duration",
                          "type": "number",
                          "input": true
                        }
                      ],
                      "width": 4
                    },
                    {
                      "components": [
                        {
                          "label": "Active study program",
                          "labelPosition": "top",
                          "searchEnabled": false,
                          "widget": "choicesjs",
                          "data": {
                            "values": [
                              {
                                "label": "No",
                                "value": "0"
                              },
                              {
                                "label": "Yes",
                                "value": "1"
                              }
                            ]
                          },
                          "defaultValue": "0",
                          "calculateValue": "value = value ? 1 : 0",
                          "key": "isActive",
                          "type": "select",
                          "input": true,
                          "validate": {
                            "required": true
                          },
                          "description": "Select if the study program will be active. This defaults to true and newly enrolled students will be assigned this study program."
                        }
                      ],
                      "width": 4
                    },
                    {
                      "components": [
                        {
                          "label": "Fees",
                          "labelPosition": "top",
                          "searchEnabled": false,
                          "widget": "choicesjs",
                          "data": {
                            "values": [
                              {
                                "label": "No",
                                "value": "0"
                              },
                              {
                                "label": "Yes",
                                "value": "1"
                              }
                            ]
                          },
                          "defaultValue": "0",
                          "calculateValue": "value = value ? 1 : 0",
                          "key": "hasFees",
                          "type": "select",
                          "input": true,
                          "validate": {
                            "required": true
                          }
                        }
                      ],
                      "width": 4
                    }
                  ],
                  "customClass": "text-dark",
                  "type": "columns",
                  "input": false
                },
                {
                  "columns": [
                    {
                      "components": [
                        {
                          "label": "Study Level",
                          "labelPosition": "top",
                          "widget": "choicesjs",
                          "dataSrc": "url",
                          "data": {
                            "url": "StudyLevels/?$select=id,name,alternateName",
                            "headers": []
                          },
                          "template": "<span class='d-block pr-5 text-truncate'>{{ item.name }}</span>",
                          "selectValues": "value",
                          "validate": {
                            "required": false
                          },
                          "key": "studyLevel",
                          "valueProperty": "id",
                          "lazyLoad": false,
                          "type": "select",
                          "input": true,
                          "disabled": true,
                          "description": "Set the study level of this study program"
                        }
                      ],
                      "width": 3
                    },
                    {
                      "components": [
                        {
                          "label": "Decimal digits",
                          "labelPosition": "top",
                          "widget": {
                            "type": "input"
                          },
                          "validate": {
                            "required": true,
                            "integer": true,
                            "min": 0,
                            "max": 5
                          },
                          "hidden": true,
                          "key": "decimalDigits",
                          "type": "number",
                          "input": true,
                          "protected": true,
                          "description": "Edit the decimal points of the graduation grade."
                        }
                      ],
                      "width": 3
                    }
                  ],
                  "customClass": "text-dark",
                  "type": "columns",
                  "input": false
                },
                {
                  "columns": [
                    {
                      "components": [
                        {
                          "label": "Grade Scale",
                          "labelPosition": "top",
                          "widget": "choicesjs",
                          "dataSrc": "url",
                          "data": {
                            "url": "GradeScales/?$select=id,name",
                            "headers": []
                          },
                          "template": "<span class='d-block pr-5 text-truncate'>{{ item.name }}</span>",
                          "searchFields": [
                            "id",
                            "name"
                          ],
                          "selectValues": "value",
                          "validate": {
                            "required": true
                          },
                          "key": "gradeScale",
                          "valueProperty": "id",
                          "lazyLoad": false,
                          "type": "select",
                          "input": true,
                          "disabled": false,
                          "description": "Select the grade scale that will be applied in this study program. This will affect grade submission and student grades."
                        }
                      ],
                      "width": 3
                    },
                    {
                      "components": [
                        {
                          "label": "Study title type",
                          "labelPosition": "top",
                          "widget": "choicesjs",
                          "dataSrc": "url",
                          "data": {
                            "url": "studyTitleTypes/?$select=id,name",
                            "headers": []
                          },
                          "template": "<span class='d-block pr-5 text-truncate'>{{ item.name }}</span>",
                          "searchFields": [
                            "id",
                            "name"
                          ],
                          "selectValues": "value",
                          "validate": {
                            "required": true
                          },
                          "key": "info.studyTitleType",
                          "lazyLoad": false,
                          "type": "select",
                          "input": true
                        }
                      ],
                      "width": 4
                    },
                    {
                      "components": [
                        {
                          "label": "Other name",
                          "labelPosition": "top",
                          "key": "info.otherName",
                          "description": "Set an alternate name for study program (probably for printing)",
                          "type": "textfield",
                          "validate": {
                            "required": false,
                            "maxLength": 150
                          }
                        }
                      ],
                      "width": 6
                    },
                    {
                      "components": [
                        {
                          "label": "Description",
                          "labelPosition": "top",
                          "widget": {
                            "type": "input"
                          },
                          "validate": {
                            "required": false
                          },
                          "editor": "quill",
                          "key": "info.notes",
                          "type": "textarea",
                          "input": true
                        }
                      ],
                      "width": 12
                    },
                    {
                      "components": [
                        {
                          "label": "Enrollment notes",
                          "labelPosition": "top",
                          "widget": {
                            "type": "input"
                          },
                          "validate": {
                            "required": false
                          },
                          "editor": "quill",
                          "key": "info.enrollmentNotes",
                          "type": "textarea",
                          "input": true,
                          "description": "These notes will be visible to the candidates who want to enroll in this study program"
                        }
                      ],
                      "width": 12
                    }
                    ],
                  "customClass": "text-dark",
                  "type": "columns",
                  "input": false
                },
                {
                  "label": "Update courses' attributes based on this study program",
                  "tableView": true,
                  "key": "useCurrentCourseAttributes",
                  "type": "checkbox",
                  "input": true,
                  "defaultValue": false,
                  "customClass": "my-2 py-2",
                  "calculateValue" : "value = !!value;"
                }
              ]
            }
          ]
        },
        {
          "legend": "Extra Information",
          "key": "fieldSet",
          "type": "fieldset",
          "input": false,
          "label": "Extra Information",
          "components": [
            {
              "components": [
                {
                  "label": "Program objectives",
                  "autoExpand": false,
                  "spellcheck": true,
                  "tableView": true,
                  "clearOnHide": false,
                  "key": "info.objective",
                  "type": "textarea",
                  "editor": "quill",
                  "rows": 5,
                  "input": true
                }
              ],
              "width": 12
            },
            {
              "components": [
                {
                  "label": "Learning outcomes",
                  "autoExpand": false,
                  "spellcheck": true,
                  "tableView": true,
                  "clearOnHide": false,
                  "key": "info.learningOutcome",
                  "type": "textarea",
                  "editor": "quill",
                  "rows": 5,
                  "input": true
                }
              ],
              "width": 12
            },
            {
              "components": [
                {
                  "label": "Benefits",
                  "autoExpand": false,
                  "spellcheck": true,
                  "tableView": true,
                  "clearOnHide": false,
                  "key": "info.benefit",
                  "type": "textarea",
                  "editor": "quill",
                  "rows": 5,
                  "input": true
                }
              ],
              "width": 12
            },
            {
              "components": [
                {
                  "label": "Official duration",
                  "autoExpand": false,
                  "spellcheck": true,
                  "tableView": true,
                  "clearOnHide": false,
                  "key": "info.officialDuration",
                  "type": "textarea",
                  "editor": "quill",
                  "rows": 5,
                  "input": true
                }
              ],
              "width": 12
            },
            {
              "components": [
                {
                  "label": "Access requirements",
                  "autoExpand": false,
                  "spellcheck": true,
                  "tableView": true,
                  "clearOnHide": false,
                  "key": "info.accessRequirements",
                  "type": "textarea",
                  "editor": "quill",
                  "rows": 5,
                  "input": true
                }
              ],
              "width": 12
            },
            {
              "components": [
                {
                  "label": "Study mode",
                  "autoExpand": false,
                  "spellcheck": true,
                  "tableView": true,
                  "clearOnHide": false,
                  "key": "info.modeOfStudy",
                  "type": "textarea",
                  "editor": "quill",
                  "rows": 5,
                  "input": true
                }
              ],
              "width": 12
            },
            {
              "components": [
                {
                  "label": "Degree requirements",
                  "autoExpand": false,
                  "spellcheck": true,
                  "tableView": true,
                  "clearOnHide": false,
                  "key": "info.degreeRequirements",
                  "type": "textarea",
                  "editor": "quill",
                  "rows": 5,
                  "input": true
                }
              ],
              "width": 12
            },
            {
              "components": [
                {
                  "label": "Grading scheme",
                  "autoExpand": false,
                  "spellcheck": true,
                  "tableView": true,
                  "clearOnHide": false,
                  "key": "info.gradingScheme",
                  "type": "textarea",
                  "editor": "quill",
                  "rows": 5,
                  "input": true
                }
              ],
              "width": 12
            },
            {
              "components": [
                {
                  "label": "Other Info",
                  "autoExpand": false,
                  "spellcheck": true,
                  "tableView": true,
                  "clearOnHide": false,
                  "key": "info.otherInfo",
                  "type": "textarea",
                  "editor": "quill",
                  "rows": 5,
                  "input": true
                }
              ],
              "width": 12
            },
            {
              "components": [
                {
                  "label": "Further Info",
                  "autoExpand": false,
                  "spellcheck": true,
                  "tableView": true,
                  "clearOnHide": false,
                  "key": "info.furtherInfo",
                  "type": "textarea",
                  "editor": "quill",
                  "rows": 5,
                  "input": true
                }
              ],
              "width": 12
            },
            {
              "components": [
                {
                  "label": "Language Of Instruction",
                  "autoExpand": false,
                  "spellcheck": true,
                  "tableView": true,
                  "clearOnHide": false,
                  "key": "info.languageOfInstruction",
                  "type": "textarea",
                  "editor": "quill",
                  "rows": 5,
                  "input": true
                }
              ],
              "width": 12
            },
            {
              "components": [
                {
                  "label": "Study program requirements",
                  "autoExpand": false,
                  "spellcheck": true,
                  "tableView": true,
                  "clearOnHide": false,
                  "key": "info.programRequirements",
                  "type": "textarea",
                  "editor": "quill",
                  "rows": 5,
                  "input": true
                }
              ],
              "width": 12
            },
            {
              "components": [
                {
                  "label": "Field of study",
                  "autoExpand": false,
                  "spellcheck": true,
                  "tableView": true,
                  "clearOnHide": false,
                  "key": "info.fieldOfStudy",
                  "type": "textarea",
                  "editor": "quill",
                  "rows": 5,
                  "input": true
                }
              ],
              "width": 12
            }
          ]
        },
        {
          "legend": "Other languages",
          "key": "fieldSet",
          "type": "fieldset",
          "input": false,
          "label": "Other languages",
          "components": [
            {
              "label": "",
              "hideLabel": true,
              "key": "info.locales",
              "type": "datagrid",
              "disableAddingRemovingRows": true,
              "input": true,
              "customClass": "fix-panel-for-locales",
              "components": [
                
                {
                  "collapsible": false,
                  "hideLabel": true,
                  "key": "panel",
                  "type": "panel",
                  "title": "",
                  "hideTitle": true,
                  "input": false,
                  "tableView": false,
                  "components": [
                    {
                      "content": "<span class=\"h4 text-secondary font-weight-normal\">{{instance.t(row.inLanguage)}}</span>",
                      "refreshOnChange": false,
                      "key": "html",
                      "type": "htmlelement",
                      "input": false,
                      "tableView": false,
                      "customConditional": "show = row.inLanguage && row.inLanguage.length"
                  },
                    {
                      "label": "Language",
                      "hidden": true,
                      "tableView": true,
                      "key": "inLanguage",
                      "disabled": "true",
                      "type": "textfield",
                      "input": true
                    },
                    {
                      "label": "Title",
                      "tableView": true,
                      "key": "name",
                      "type": "textfield",
                      "input": true
                    },
                    {
                      "label": "Degree description",
                      "tableView": true,
                      "key": "degreeDescription",
                      "type": "textfield",
                      "input": true
                    },
                    {
                      "label": "Other name",
                      "tableView": true,
                      "key": "otherName",
                      "type": "textfield",
                      "input": true
                    },
                    {
                      "components": [
                        {
                          "label": "Description",
                          "labelPosition": "top",
                          "widget": {
                            "type": "input"
                          },
                          "validate": {
                            "required": false
                          },
                          "editor": "quill",
                          "key": "notes",
                          "type": "textarea",
                          "input": true
                        }
                      ],
                      "width": 12
                    },
                    {
                      "components": [
                        {
                          "label": "Enrollment notes",
                          "labelPosition": "top",
                          "widget": {
                            "type": "input"
                          },
                          "validate": {
                            "required": false
                          },
                          "editor": "quill",
                          "key": "enrollmentNotes",
                          "type": "textarea",
                          "input": true,
                          "description": "These notes will be visible to the candidates who want to enroll in this study program"
                        }
                      ],
                      "width": 12
                    },
                    {
                      "components": [
                        {
                          "label": "Program objectives",
                          "autoExpand": false,
                          "spellcheck": true,
                          "tableView": true,
                          "clearOnHide": false,
                          "key": "objective",
                          "type": "textarea",
                          "editor": "quill",
                          "rows": 5,
                          "input": true
                        }
                      ],
                      "width": 12
                    },
                    {
                      "components": [
                        {
                          "label": "Learning outcomes",
                          "autoExpand": false,
                          "spellcheck": true,
                          "tableView": true,
                          "clearOnHide": false,
                          "key": "learningOutcome",
                          "type": "textarea",
                          "editor": "quill",
                          "rows": 5,
                          "input": true
                        }
                      ],
                      "width": 12
                    },
                    {
                      "components": [
                        {
                          "label": "Benefits",
                          "autoExpand": false,
                          "spellcheck": true,
                          "tableView": true,
                          "clearOnHide": false,
                          "key": "benefit",
                          "type": "textarea",
                          "editor": "quill",
                          "rows": 5,
                          "input": true
                        }
                      ],
                      "width": 12
                    },
                    {
                      "components": [
                        {
                          "label": "Official duration",
                          "autoExpand": false,
                          "spellcheck": true,
                          "tableView": true,
                          "clearOnHide": false,
                          "key": "officialDuration",
                          "type": "textarea",
                          "editor": "quill",
                          "rows": 5,
                          "input": true
                        }
                      ],
                      "width": 12
                    },
                    {
                      "components": [
                        {
                          "label": "Access requirements",
                          "autoExpand": false,
                          "spellcheck": true,
                          "tableView": true,
                          "clearOnHide": false,
                          "key": "accessRequirements",
                          "type": "textarea",
                          "editor": "quill",
                          "rows": 5,
                          "input": true
                        }
                      ],
                      "width": 12
                    },
                    {
                      "components": [
                        {
                          "label": "Study mode",
                          "autoExpand": false,
                          "spellcheck": true,
                          "tableView": true,
                          "clearOnHide": false,
                          "key": "modeOfStudy",
                          "type": "textarea",
                          "editor": "quill",
                          "rows": 5,
                          "input": true
                        }
                      ],
                      "width": 12
                    },
                    {
                      "components": [
                        {
                          "label": "Degree requirements",
                          "autoExpand": false,
                          "spellcheck": true,
                          "tableView": true,
                          "clearOnHide": false,
                          "key": "degreeRequirements",
                          "type": "textarea",
                          "editor": "quill",
                          "rows": 5,
                          "input": true
                        }
                      ],
                      "width": 12
                    },
                    {
                      "components": [
                        {
                          "label": "Grading scheme",
                          "autoExpand": false,
                          "spellcheck": true,
                          "tableView": true,
                          "clearOnHide": false,
                          "key": "gradingScheme",
                          "type": "textarea",
                          "editor": "quill",
                          "rows": 5,
                          "input": true
                        }
                      ],
                      "width": 12
                    },
                    {
                      "components": [
                        {
                          "label": "Other Info",
                          "autoExpand": false,
                          "spellcheck": true,
                          "tableView": true,
                          "clearOnHide": false,
                          "key": "otherInfo",
                          "type": "textarea",
                          "editor": "quill",
                          "rows": 5,
                          "input": true
                        }
                      ],
                      "width": 12
                    },
                    {
                      "components": [
                        {
                          "label": "Further Info",
                          "autoExpand": false,
                          "spellcheck": true,
                          "tableView": true,
                          "clearOnHide": false,
                          "key": "furtherInfo",
                          "type": "textarea",
                          "editor": "quill",
                          "rows": 5,
                          "input": true
                        }
                      ],
                      "width": 12
                    },
                    {
                      "components": [
                        {
                          "label": "Language Of Instruction",
                          "autoExpand": false,
                          "spellcheck": true,
                          "tableView": true,
                          "clearOnHide": false,
                          "key": "languageOfInstruction",
                          "type": "textarea",
                          "editor": "quill",
                          "rows": 5,
                          "input": true
                        }
                      ],
                      "width": 12
                    },
                    {
                      "components": [
                        {
                          "label": "Study program requirements",
                          "autoExpand": false,
                          "spellcheck": true,
                          "tableView": true,
                          "clearOnHide": false,
                          "key": "programRequirements",
                          "type": "textarea",
                          "editor": "quill",
                          "rows": 5,
                          "input": true
                        }
                      ],
                      "width": 12
                    },
                    {
                      "components": [
                        {
                          "label": "Field of study",
                          "autoExpand": false,
                          "spellcheck": true,
                          "tableView": true,
                          "clearOnHide": false,
                          "key": "fieldOfStudy",
                          "type": "textarea",
                          "editor": "quill",
                          "rows": 5,
                          "input": true
                        }
                      ],
                      "width": 12
                    }
                  ]
                }
              ]
            }
          ]
        }
      ]
    },
    {
      "type": "button",
      "label": "Submit",
      "key": "submit",
      "disableOnInvalid": true,
      "input": true
    }
  ]
}
