{
  "title": "Course students",
  "searchExpression": "indexof(student/studentIdentifier, '${text}') ge 0 or indexof(student/person/familyName, '${text}') ge 0 or indexof(student/person/givenName, '${text}') ge 0)",
  "columns": [
    {
      "name": "student/id",
      "property": "id",
      "formatter": "ActionLinkFormatter",
      "actions": [
        {
          "title": "Students.Preview",
          "href": "#/students/${id}/dashboard/overview"
        }
      ]
    },

    {
      "name": "student/studentIdentifier",
      "property": "studentIdentifier",
      "title": "Students.studentIdentifier"
    },
    {
      "name": "student/person/familyName",
      "property": "familyName",
      "title": "Students.fullName",
      "formatter": "TemplateFormatter",
      "formatString": "${familyName} ${givenName}"
    },
    {
      "name": "student/person/givenName",
      "property": "givenName",
      "title": "Students.GivenName",
      "hidden": true
    },
    {
      "name": "student/studyProgram/abbreviation",
      "property": "studyProgram",
      "title": "Students.studyProgram"
    },
    {
      "name": "student/inscriptionYear/alternateName",
      "property": "inscriptionYear",
      "title": "Students.inscriptionYear"
    },
    {
      "name": "student/studentStatus/alternateName",
      "property": "studentStatus",
      "title": "Students.Status",
      "formatter": "TranslationFormatter",
      "formatString": "StudentStatuses.${value}"
    },
    {
      "name": "gradeYear/alternateName",
      "property": "gradeYear",
      "title": "Students.GradeYear",
      "formatter": "TemplateFormatter",
      "formatString": "${gradeYear} ${gradePeriod}"
    },
    {
      "name": "gradePeriod/name",
      "property": "gradePeriod",
      "title": "Students.GradePeriod",
      "hidden": true
    },
    {
      "name": "calculateUnits",
      "property": "calculateUnits",
      "hidden": true,
      "title": "Students.calculateUnits",
      "formatters": [
        {
          "formatter": "TrueFalseFormatter"
        },
        {
          "formatter": "NgClassFormatter",
          "formatOptions": {
            "ngClass": {
              "text-danger": "${!calculateUnits}"
            }
          }
        }
      ]
    },
    {
      "name": "calculateGrade",
      "property": "calculateGrade",
      "hidden": true,
      "title": "Students.calculateGrades",
      "formatters": [
        {
          "formatter": "TrueFalseFormatter"
        },
        {
          "formatter": "NgClassFormatter",
          "formatOptions": {
            "ngClass": {
              "text-danger": "${!calculateGrade}"
            }
          }
        }
      ]
    },
    {
      "name": "registrationType",
      "property": "registrationType",
      "hidden": true,
      "title": "Students.RegistrationType",
      "formatters": [
        {
          "formatter": "TrueFalseFormatter"
        },
        {
          "formatter": "NgClassFormatter",
          "formatOptions": {
            "ngClass": {
              "text-success": "${registrationType}===1"
            }
          }
        }
      ]


    },
    {
      "name":"courseType/abbreviation",
      "property": "courseTypeName",
      "title":"Courses.CourseType.Label"
    },
    {
      "name": "units",
      "property": "units",
      "hidden": true,
      "title": "Students.Units"
    },
    {
      "name": "ects",
      "property": "ects",
      "title": "Students.Εcts"
    },
    {
      "name": "coefficient",
      "property": "coefficient",
      "hidden": true,
      "title": "Students.Coefficient"
    },
    {
      "name":"semester/alternateName",
      "property": "semester",
      "hidden": true,
      "title":"Courses.semester"
    },
    {
      "name": "isPassed",
      "property": "isPassed",
      "hidden": true
    },
    {
      "name": "formattedGrade",
      "property": "formattedGrade",
      "title": "Students.Grade",
      "formatter": "NgClassFormatter",
      "formatOptions": {
        "ngClass": {
          "text-success": "${isPassed}===1  && ${formattedGrade != null}",
          "text-danger": "${isPassed}===0 && ${formattedGrade != null}"
        }
      }
    }
  ],
  "defaults": {

  },
  "criteria": [
    {
      "name": "familyName",
      "filter": "(indexof(student/person/familyName, '${value}') ge 0)",
      "type": "text"
    },
    {
      "name": "studentStatus",
      "filter": "(student/studentStatus/alternateName eq '${value}')",
      "type": "text"
    },
    {
      "name":"courseType",
      "filter":"(courseType/id eq ${value})",
      "type":"text"
    },
    {
      "name": "inscriptionYear",
      "filter": "(student/inscriptionYear eq ${value})",
      "type": "text"
    },
    {
      "name": "gradeYear",
      "filter": "(gradeYear eq ${value})",
      "type": "text"
    },
    {
      "name": "studentIdentifier",
      "filter": "(student/studentIdentifier eq '${value}')",
      "type": "text"
    },
    {
      "name": "studentName",
      "filter": "(indexof(student/person/familyName, '${value}') ge 0 or indexof(student/person/givenName, '${value}') ge 0)",
      "type": "text"
    },
    {
      "name": "registrationType",
      "filter": "(registrationType eq ${value})",
      "type": "text"
    },
    {
      "name": "calculateGrade",
      "filter": "(calculateGrade eq ${value})",
      "type": "text"
    },
    {
      "name": "calculateUnits",
      "filter": "(calculateUnits eq ${value})",
      "type": "text"
    },
    {
      "name": "isPassed",
      "filter": "(isPassed eq ${value})",
      "type": "text"
    },
    {
      "name": "studyProgram",
      "filter": "(student/studyProgram/id eq '${value}')",
      "type": "text"
    }
  ]
}
